\relax 
\providecommand\hyper@newdestlabel[2]{}
\providecommand\HyperFirstAtBeginDocument{\AtBeginDocument}
\HyperFirstAtBeginDocument{\ifx\hyper@anchor\@undefined
\global\let\oldcontentsline\contentsline
\gdef\contentsline#1#2#3#4{\oldcontentsline{#1}{#2}{#3}}
\global\let\oldnewlabel\newlabel
\gdef\newlabel#1#2{\newlabelxx{#1}#2}
\gdef\newlabelxx#1#2#3#4#5#6{\oldnewlabel{#1}{{#2}{#3}}}
\AtEndDocument{\ifx\hyper@anchor\@undefined
\let\contentsline\oldcontentsline
\let\newlabel\oldnewlabel
\fi}
\fi}
\global\let\hyper@last\relax 
\gdef\HyperFirstAtBeginDocument#1{#1}
\providecommand\HyField@AuxAddToFields[1]{}
\providecommand\HyField@AuxAddToCoFields[2]{}
\bibstyle{biblatex}
\bibdata{KantNER_Report-blx,KantNER_Report_Biblography}
\citation{biblatex-control}
\@input{KantNER_Report_Cover.aux}
\@writefile{toc}{\boolfalse {citerequest}\boolfalse {citetracker}\boolfalse {pagetracker}\boolfalse {backtracker}\relax }
\@writefile{lof}{\boolfalse {citerequest}\boolfalse {citetracker}\boolfalse {pagetracker}\boolfalse {backtracker}\relax }
\@writefile{lot}{\boolfalse {citerequest}\boolfalse {citetracker}\boolfalse {pagetracker}\boolfalse {backtracker}\relax }
\select@language{english}
\@writefile{toc}{\defcounter {refsection}{0}\relax }\@writefile{toc}{\select@language{english}}
\@writefile{lof}{\defcounter {refsection}{0}\relax }\@writefile{lof}{\select@language{english}}
\@writefile{lot}{\defcounter {refsection}{0}\relax }\@writefile{lot}{\select@language{english}}
\@writefile{toc}{\defcounter {refsection}{0}\relax }\@writefile{toc}{\contentsline {section}{Table of Content}{i}{section*.1}}
\citation{bbaw2019index}
\citation{korpora2019index}
\citation{archive2019index}
\citation{korpora2019persindex}
\citation{dta2019krv}
\citation{dta2019trans}
\@writefile{toc}{\defcounter {refsection}{0}\relax }\@writefile{toc}{\contentsline {section}{\numberline {1}Introduction}{1}{section.1}}
\newlabel{idea}{{1}{1}{Introduction}{section.1}{}}
\citation{spacy2019index}
\citation{tiger2019index}
\citation{nothman2013learning}
\citation{spacy2019models}
\@writefile{toc}{\defcounter {refsection}{0}\relax }\@writefile{toc}{\contentsline {section}{\numberline {2}Text and Model}{2}{section.2}}
\newlabel{a text and model}{{2}{2}{Text and Model}{section.2}{}}
\citation{korpora2019persindex}
\@writefile{toc}{\defcounter {refsection}{0}\relax }\@writefile{toc}{\contentsline {section}{\numberline {3}Architecture}{3}{section.3}}
\@writefile{lof}{\defcounter {refsection}{0}\relax }\@writefile{lof}{\contentsline {figure}{\numberline {1}{\ignorespaces Architecture}}{3}{figure.1}}
\newlabel{architecture}{{1}{3}{Architecture}{figure.1}{}}
\@writefile{toc}{\defcounter {refsection}{0}\relax }\@writefile{toc}{\contentsline {section}{\numberline {4}Finding all Named Entities}{3}{section.4}}
\newlabel{named entities}{{4}{3}{Finding all Named Entities}{section.4}{}}
\@writefile{lof}{\defcounter {refsection}{0}\relax }\@writefile{lof}{\contentsline {figure}{\numberline {2}{\ignorespaces ER Diagram Named Entities}}{4}{figure.2}}
\newlabel{er_person}{{2}{4}{ER Diagram Named Entities}{figure.2}{}}
\@writefile{toc}{\defcounter {refsection}{0}\relax }\@writefile{toc}{\contentsline {section}{\numberline {5}Running the NER model}{5}{section.5}}
\newlabel{running_the_ner_model}{{5}{5}{Running the NER model}{section.5}{}}
\@writefile{toc}{\defcounter {refsection}{0}\relax }\@writefile{toc}{\contentsline {section}{\numberline {6}Results}{5}{section.6}}
\newlabel{results}{{6}{5}{Results}{section.6}{}}
\@writefile{lof}{\defcounter {refsection}{0}\relax }\@writefile{lof}{\contentsline {figure}{\numberline {3}{\ignorespaces ER Diagram with F-Score}}{6}{figure.3}}
\newlabel{er_full}{{3}{6}{ER Diagram with F-Score}{figure.3}{}}
\@writefile{lof}{\defcounter {refsection}{0}\relax }\@writefile{lof}{\contentsline {figure}{\numberline {4}{\ignorespaces F-Score}}{6}{figure.4}}
\newlabel{f_score}{{4}{6}{F-Score}{figure.4}{}}
\@writefile{lot}{\defcounter {refsection}{0}\relax }\@writefile{lot}{\contentsline {table}{\numberline {1}{\ignorespaces Compared F-Scores}}{7}{table.1}}
\newlabel{f_score_compared}{{1}{7}{Compared F-Scores}{table.1}{}}
\@writefile{toc}{\defcounter {refsection}{0}\relax }\@writefile{toc}{\contentsline {section}{\numberline {7}Conclusion}{7}{section.7}}
\@writefile{toc}{\defcounter {refsection}{0}\relax }\@writefile{toc}{\contentsline {section}{Bibliography}{i}{section*.2}}
